[
	{
		"name": "Mayra Women Yellow Printed A-Line Top",
		"category": "women",
		"subcategory": "tops",
		"brand": "Mayra",
		"price": 1195,
		"date":"25/07/17",
		"discount_percent": 60,
		"selling_price": 478,
		"thumbnail": "assets/imgs/women-tops/wt001a.jpg",
		"sizes": ["S", "M", "L", "XL"],
		"details": "Yellow printed woven A-line top, has a round neck, three-quarter sleeves",
		"material": "Viscose Rayon",
		"care": "Dry-clean",
		"product_code": "4441307",
		"model_info": "The model (height 5'8) is wearing a size S",
		"sold_by": "Proleague ( Supplied By Partner )",
		"manufacturer": "Mayra Fashion Impex, 23/339, Wazirpura, Agra 282003 (UP)",
		"country": "India",
		"quantity": 2,
		"order_id":213122324,
		"tax":129,
		"shipping details":200,
		"images": ["assets/imgs/women-tops/wt001a.jpg", "assets/imgs/women-tops/wt001b.jpg", "assets/imgs/women-tops/wt001c.jpg", "assets/imgs/women-tops/wt001d.jpg", "assets/imgs/women-tops/wt001e.jpg"]
	},
	{
		"name": "Vero Moda Women Blue Slim Fit Stretchable Jeans",
		"category": "women",
		"subcategory": "jeans",
		"brand": "Vero Moda",
		"date":"25/07/17",
		"price": 3499,
		"discount_percent": 60,
		"selling_price": 1399,
		"thumbnail": "assets/imgs/women-jeans/wj002a.jpg",
		"sizes": ["26", "27", "28", "29", "31", "32", "33"],
		"details": "Blue medium-wash 5-pocket mid-rise Jeans with printed detail, clean look with light fade, has whiskers and chevrons, a zip fly and button closure, waistband with belt loops, frayed hems",
		"material": "98% cotton, 2% elastane",
		"care": "Stretchable, Hand-wash",
		"product_code": "1839166",
		"model_info": "The model (height 5'8'') is wearing a size 28",
		"sold_by": "Wiztech Corp",
		"manufacturer": "",
		"country": "",
		"quantity": 1,
		"order_id":23423004,
		"tax":138,
		"shipping_details":150,
		"images": ["assets/imgs/women-jeans/wj002a.jpg", "assets/imgs/women-jeans/wj002b.jpg", "assets/imgs/women-jeans/wj002c.jpg", "assets/imgs/women-jeans/wj002d.jpg", "assets/imgs/women-jeans/wj002e.jpg"]
	}
]