[{
		"category": "Women",
		"subs": [{
			"title": "Bra",
			"img": "assets/imgs/icons/bra.png"
		}, {
			"title": "Panty",
			"img": "assets/imgs/icons/panties.png"
		}, {
			"title": "Shorts",
			"img": "assets/imgs/icons/shorts.png"
		}, {
			"title": "Shapewears",
			"img": "assets/imgs/icons/f-shapewear.png"
		}, {
			"title": "Lowers",
			"img": "assets/imgs/icons/lowers.png"
		}, {
			"title": "Socks",
			"img": "assets/imgs/icons/socks.png"
		}, {
			"title": "Handkerchief",
			"img": "assets/imgs/icons/handkerchief.png"
		}, {
			"title": "T-shirts",
			"img": "assets/imgs/icons/f-tshirt.png"
		}, {
			"title": "Towels",
			"img": "assets/imgs/icons/towel.png"
		}]
	},
	{
		"category": "Men",
		"subs": [{
			"title": "Underwear",
			"img": "assets/imgs/icons/m-underwear.png"
		}, {
			"title": "Vest",
			"img": "assets/imgs/icons/vest.png"
		}, {
			"title": "Shorts",
			"img": "assets/imgs/icons/shorts.png"
		}, {
			"title": "Shapewears",
			"img": "assets/imgs/icons/m-shapewear.png"
		}, {
			"title": "Lowers",
			"img": "assets/imgs/icons/lowers.png"
		}, {
			"title": "Socks",
			"img": "assets/imgs/icons/socks.png"
		}, {
			"title": "Handkerchief",
			"img": "assets/imgs/icons/handkerchief.png"
		}, {
			"title": "T-shirts",
			"img": "assets/imgs/icons/m-tshirt.png"
		}, {
			"title": "Towels",
			"img": "assets/imgs/icons/towel.png"
		}]
	},
	{
		"category": "Boys",
		"subs": [{
			"title": "Underwear",
			"img": "assets/imgs/icons/m-underwear.png"
		}, {
			"title": "Vest",
			"img": "assets/imgs/icons/vest.png"
		}, {
			"title": "Shorts",
			"img": "assets/imgs/icons/shorts.png"
		}, {
			"title": "Lowers",
			"img": "assets/imgs/icons/lowers.png"
		}, {
			"title": "Socks",
			"img": "assets/imgs/icons/socks.png"
		}, {
			"title": "Handkerchief",
			"img": "assets/imgs/icons/handkerchief.png"
		}, {
			"title": "T-shirts",
			"img": "assets/imgs/icons/m-tshirt.png"
		}, {
			"title": "Towels",
			"img": "assets/imgs/icons/towel.png"
		}]
	},
	{
		"category": "Girls",
		"subs": [{
			"title": "Bra",
			"img": "assets/imgs/icons/bra.png"
		}, {
			"title": "Panty",
			"img": "assets/imgs/icons/panties.png"
		}, {
			"title": "Shorts",
			"img": "assets/imgs/icons/shorts.png"
		}, {
			"title": "Lowers",
			"img": "assets/imgs/icons/lowers.png"
		}, {
			"title": "Socks",
			"img": "assets/imgs/icons/socks.png"
		}, {
			"title": "Handkerchief",
			"img": "assets/imgs/icons/handkerchief.png"
		}, {
			"title": "T-shirts",
			"img": "assets/imgs/icons/f-tshirt.png"
		}, {
			"title": "Towels",
			"img": "assets/imgs/icons/towel.png"
		}]
	}
]